{
  "$schema": "../../node_modules/ng-packagr/ng-package.schema.json",
  "dest": "../../dist/@nasumilu/ngx-ol-control",
  "lib": {
    "entryFile": "src/public-api.ts"
  },
  "assets": [
    "src/lib/theme/**"
  ]
}
