<?xml version="1.0" encoding="utf-8" ?>
<kml xmlns="http://www.opengis.net/kml/2.2">
<Document id="root_doc">
<Folder><name>random_polygon</name>
  <Placemark>
	<Style><LineStyle><color>FFFFFFFF</color><width>1.25</width></LineStyle><PolyStyle><fill>0</fill></PolyStyle></Style>
      <Polygon><outerBoundaryIs><LinearRing><coordinates>-144.685078,36.792357 -141.557378,31.72106 -133.101005,36.792357 -138.082156,43.343859 -140.051449,38.625088 -144.685078,36.792357</coordinates></LinearRing></outerBoundaryIs><innerBoundaryIs><LinearRing><coordinates>-142.584107,36.369035 -140.340598,36.05103 -139.00662,37.411654 -137.975818,36.222424 -140.946952,34.291596 -142.584107,36.369035</coordinates></LinearRing></innerBoundaryIs></Polygon>
  </Placemark>
  <Placemark>
	<Style><LineStyle><color>FFFFFFFF</color><width>0.737006</width></LineStyle><PolyStyle><fill>0</fill></PolyStyle></Style>
      <Polygon><outerBoundaryIs><LinearRing><coordinates>-130.204986,11.50595 -121.40109,14.216102 -121.40109,22.668363 -126.613923,25.313861 -130.204986,11.50595</coordinates></LinearRing></outerBoundaryIs></Polygon>
  </Placemark>
  <Placemark>
	<Style><LineStyle><color>FFFFFFFF</color><width>0.737006</width></LineStyle><PolyStyle><fill>0</fill></PolyStyle></Style>
      <Polygon><outerBoundaryIs><LinearRing><coordinates>-109.469495,2.084673 -110.859583,11.959631 -103.329936,8.540412 -96.958695,6.588355 -105.183387,7.278312 -108.542769,6.703417 -105.994273,2.663377 -109.469495,2.084673</coordinates></LinearRing></outerBoundaryIs></Polygon>
  </Placemark>
</Folder>
</Document></kml>
